<svg id="Livello_1" data-name="Livello 1" xmlns="http://www.w3.org/2000/svg" xmlns:xlink="http://www.w3.org/1999/xlink" width="60.9" height="73.6" viewBox="0 0 60.9 73.6">
  <defs>
    <clipPath id="clip-path" transform="translate(0 0.1)">
      <polygon points="0 17.5 0 52.5 30.4 70 60.9 52.4 60.9 17.5 30.4 0 0 17.5" fill="none"/>
    </clipPath>
  </defs>
  <title>drupalcon_small</title>
  <g>
    <g clip-path="url(#clip-path)">
      <polygon points="12.2 10.5 12.2 17.6 18.3 14 12.2 10.5" fill="#21887e"/>
    </g>
    <g clip-path="url(#clip-path)">
      <polygon points="12.2 17.6 12.2 10.5 6.1 14 12.2 17.6" fill="#7dc9c9"/>
    </g>
    <g clip-path="url(#clip-path)">
      <polygon points="12.2 17.6 12.2 24.5 18.3 21 12.2 17.6" fill="#29a769"/>
    </g>
    <g clip-path="url(#clip-path)">
      <polygon points="12.2 24.5 12.2 17.6 6.1 21 12.2 24.5" fill="#80bc50"/>
    </g>
    <g clip-path="url(#clip-path)">
      <polygon points="12.2 24.5 12.2 31.6 18.3 28 12.2 24.5" fill="#73b72b"/>
    </g>
    <g clip-path="url(#clip-path)">
      <polygon points="12.2 31.6 12.2 24.5 6.1 28.1 12.2 31.6" fill="#b7d37c"/>
    </g>
    <g clip-path="url(#clip-path)">
      <polygon points="12.2 31.6 12.2 38.5 18.3 35 12.2 31.6" fill="#32bad1"/>
    </g>
    <g clip-path="url(#clip-path)">
      <polygon points="12.2 38.5 12.2 31.6 6.1 35 12.2 38.5" fill="#45ad4a"/>
    </g>
    <g clip-path="url(#clip-path)">
      <polygon points="12.2 38.5 12.2 45.6 18.3 42.1 12.2 38.5" fill="#597bb8"/>
    </g>
    <g clip-path="url(#clip-path)">
      <polygon points="12.2 45.6 12.2 38.5 6.1 42.1 12.2 45.6" fill="#356e49"/>
    </g>
    <g clip-path="url(#clip-path)">
      <polygon points="12.2 45.6 12.2 52.5 18.3 49 12.2 45.6" fill="#209ed9"/>
    </g>
    <g clip-path="url(#clip-path)">
      <polygon points="12.2 52.5 12.2 45.6 6.1 49 12.2 52.5" fill="#213970"/>
    </g>
    <g clip-path="url(#clip-path)">
      <polygon points="12.2 52.5 12.2 59.6 18.3 56.1 12.2 52.5" fill="#2075bb"/>
    </g>
    <g clip-path="url(#clip-path)">
      <polygon points="12.2 59.6 12.2 52.5 6.1 56.1 12.2 59.6" fill="#268eaa"/>
    </g>
    <g clip-path="url(#clip-path)">
      <line x1="18.3" y1="63" x2="12.2" y2="59.6" fill="none"/>
    </g>
    <g clip-path="url(#clip-path)">
      <line x1="24.3" y1="3.5" x2="30.4" fill="none"/>
    </g>
    <g clip-path="url(#clip-path)">
      <polygon points="24.3 3.5 24.3 10.5 30.4 7 24.3 3.5" fill="#2352a0"/>
    </g>
    <g clip-path="url(#clip-path)">
      <polygon points="24.3 10.5 24.3 3.5 18.3 7 24.3 10.5" fill="#156181"/>
    </g>
    <g clip-path="url(#clip-path)">
      <polygon points="24.3 10.5 24.3 17.6 30.4 14 24.3 10.5" fill="#2352a0"/>
    </g>
    <g clip-path="url(#clip-path)">
      <polygon points="24.3 17.6 24.3 10.5 18.3 14 24.3 17.6" fill="#6cc6d7"/>
    </g>
    <g clip-path="url(#clip-path)">
      <polygon points="24.3 17.6 24.3 24.5 30.4 21 24.3 17.6" fill="#1d4588"/>
    </g>
    <g clip-path="url(#clip-path)">
      <polygon points="24.3 24.5 24.3 17.6 18.3 21 24.3 24.5" fill="#268eaa"/>
    </g>
    <g clip-path="url(#clip-path)">
      <polygon points="24.3 24.5 24.3 31.5 30.4 28 24.3 24.5" fill="#176597"/>
    </g>
    <g clip-path="url(#clip-path)">
      <polygon points="24.3 31.5 24.3 24.5 18.3 28 24.3 31.5" fill="#222e59"/>
    </g>
    <g clip-path="url(#clip-path)">
      <polygon points="24.3 31.5 24.3 38.5 30.4 35 24.3 31.5" fill="#1a6b9b"/>
    </g>
    <g clip-path="url(#clip-path)">
      <polygon points="24.3 38.5 24.3 31.5 18.3 35 24.3 38.5" fill="#90c7e9"/>
    </g>
    <g clip-path="url(#clip-path)">
      <polygon points="24.3 38.5 24.3 45.6 30.4 42 24.3 38.5" fill="#597bb8"/>
    </g>
    <g clip-path="url(#clip-path)">
      <polygon points="24.3 45.6 24.3 38.5 18.3 42.1 24.3 45.6" fill="#29327a"/>
    </g>
    <g clip-path="url(#clip-path)">
      <polygon points="24.3 45.6 24.3 52.5 30.4 49 24.3 45.6" fill="#597bb8"/>
    </g>
    <g clip-path="url(#clip-path)">
      <polygon points="24.3 52.5 24.3 45.6 18.3 49 24.3 52.5" fill="#2352a0"/>
    </g>
    <g clip-path="url(#clip-path)">
      <polygon points="24.3 52.5 24.3 59.6 30.4 56.1 24.3 52.5" fill="#2ab0ae"/>
    </g>
    <g clip-path="url(#clip-path)">
      <polygon points="24.3 59.6 24.3 52.5 18.3 56.1 24.3 59.6" fill="#1d4588"/>
    </g>
    <g clip-path="url(#clip-path)">
      <polygon points="24.3 59.6 24.3 66.5 30.4 63 24.3 59.6" fill="#4bbbbc"/>
    </g>
    <g clip-path="url(#clip-path)">
      <polyline points="24.3 66.5 24.3 59.6 18.3 63" fill="#85bedc"/>
    </g>
    <g clip-path="url(#clip-path)">
      <line x1="24.3" y1="73.6" x2="24.3" y2="66.5" fill="none"/>
    </g>
    <g clip-path="url(#clip-path)">
      <polygon points="0 17.6 0 24.5 6.1 21 0 17.6" fill="#2eb4a9"/>
    </g>
    <g clip-path="url(#clip-path)">
      <polygon points="0 24.5 0 31.6 6.1 28.1 0 24.5" fill="#7dc9c9"/>
    </g>
    <g clip-path="url(#clip-path)">
      <polygon points="0 31.6 0 38.5 6.1 35 0 31.6" fill="#1366b0"/>
    </g>
    <g clip-path="url(#clip-path)">
      <polygon points="0 38.5 0 45.6 6.1 42.1 0 38.5" fill="#91b523"/>
    </g>
    <g clip-path="url(#clip-path)">
      <polygon points="0 45.6 0 52.6 6.1 49 0 45.6" fill="#00b4be"/>
    </g>
    <g clip-path="url(#clip-path)">
      <polygon points="60.9 24.5 60.9 17.5 54.8 21 60.9 24.5" fill="#db2d88"/>
    </g>
    <g clip-path="url(#clip-path)">
      <polygon points="60.9 31.5 60.9 24.5 54.8 28 60.9 31.5" fill="#d61e5f"/>
    </g>
    <g clip-path="url(#clip-path)">
      <polygon points="60.9 38.5 60.9 31.5 54.8 35 60.9 38.5" fill="#f49a70"/>
    </g>
    <g clip-path="url(#clip-path)">
      <polygon points="60.9 45.5 60.9 38.5 54.8 42 60.9 45.5" fill="#ea5428"/>
    </g>
    <g clip-path="url(#clip-path)">
      <polygon points="60.9 52.5 60.9 45.5 54.8 49 60.9 52.5" fill="#d54728"/>
    </g>
    <g clip-path="url(#clip-path)">
      <line x1="30.4" x2="36.5" y2="3.5" fill="none"/>
    </g>
    <g clip-path="url(#clip-path)">
      <polygon points="36.5 3.5 36.5 10.5 42.6 7 36.5 3.5" fill="#522776"/>
    </g>
    <g clip-path="url(#clip-path)">
      <polygon points="36.5 10.5 36.5 3.5 30.4 7 36.5 10.5" fill="#352e87"/>
    </g>
    <g clip-path="url(#clip-path)">
      <polygon points="36.5 10.5 36.5 17.6 42.6 14 36.5 10.5" fill="#352e87"/>
    </g>
    <g clip-path="url(#clip-path)">
      <polygon points="36.5 17.6 36.5 10.5 30.4 14 36.5 17.6" fill="#1e82b6"/>
    </g>
    <g clip-path="url(#clip-path)">
      <polygon points="36.5 17.6 36.5 24.5 42.6 21 36.5 17.6" fill="#597bb8"/>
    </g>
    <g clip-path="url(#clip-path)">
      <polygon points="36.5 24.5 36.5 17.6 30.4 21 36.5 24.5" fill="#1e82b6"/>
    </g>
    <g clip-path="url(#clip-path)">
      <polygon points="36.5 24.5 36.5 31.5 42.6 28 36.5 24.5" fill="#597bb8"/>
    </g>
    <g clip-path="url(#clip-path)">
      <polygon points="36.5 31.5 36.5 24.5 30.4 28 36.5 31.5" fill="#1e6d9b"/>
    </g>
    <g clip-path="url(#clip-path)">
      <polygon points="36.5 31.5 36.5 38.5 42.6 35 36.5 31.5" fill="#31a7df"/>
    </g>
    <g clip-path="url(#clip-path)">
      <polygon points="36.5 38.5 36.5 31.5 30.4 35 36.5 38.5" fill="#156181"/>
    </g>
    <g clip-path="url(#clip-path)">
      <polygon points="36.5 38.5 36.5 45.6 42.6 42 36.5 38.5" fill="#597bb8"/>
    </g>
    <g clip-path="url(#clip-path)">
      <polygon points="36.5 45.6 36.5 38.5 30.4 42.1 36.5 45.6" fill="#bbdaee"/>
    </g>
    <g clip-path="url(#clip-path)">
      <polygon points="36.5 45.6 36.5 52.5 42.6 49 36.5 45.6" fill="#597bb8"/>
    </g>
    <g clip-path="url(#clip-path)">
      <polygon points="36.5 52.5 36.5 45.6 30.4 49 36.5 52.5" fill="#222e59"/>
    </g>
    <g clip-path="url(#clip-path)">
      <polygon points="36.5 52.5 36.5 59.6 42.6 56.1 36.5 52.5" fill="#0b72b8"/>
    </g>
    <g clip-path="url(#clip-path)">
      <polygon points="36.5 59.6 36.5 52.5 30.4 56.1 36.5 59.6" fill="#036bb2"/>
    </g>
    <g clip-path="url(#clip-path)">
      <polygon points="36.5 59.6 36.5 66.5 42.6 63 36.5 59.6" fill="#3e768d"/>
    </g>
    <g clip-path="url(#clip-path)">
      <polygon points="36.5 66.5 36.5 59.6 30.4 63 36.5 66.5" fill="#0b557b"/>
    </g>
    <g clip-path="url(#clip-path)">
      <polygon points="48.7 10.5 48.7 17.5 54.8 14 48.7 10.5" fill="#e3afd0"/>
    </g>
    <g clip-path="url(#clip-path)">
      <polygon points="48.7 17.5 48.7 10.5 42.6 14 48.7 17.5" fill="#d47cb1"/>
    </g>
    <g clip-path="url(#clip-path)">
      <polygon points="48.7 17.5 48.7 24.5 54.8 21 48.7 17.5" fill="#d54728"/>
    </g>
    <g clip-path="url(#clip-path)">
      <polygon points="48.7 24.5 48.7 17.5 42.6 21 48.7 24.5" fill="#e72970"/>
    </g>
    <g clip-path="url(#clip-path)">
      <polygon points="48.7 24.5 48.7 31.5 54.8 28 48.7 24.5" fill="#f4a18b"/>
    </g>
    <g clip-path="url(#clip-path)">
      <polygon points="48.7 31.5 48.7 24.5 42.6 28 48.7 31.5" fill="#ae2d88"/>
    </g>
    <g clip-path="url(#clip-path)">
      <polygon points="48.7 31.5 48.7 38.5 54.8 35 48.7 31.5" fill="#d47cb1"/>
    </g>
    <g clip-path="url(#clip-path)">
      <polygon points="48.7 38.5 48.7 31.5 42.6 35 48.7 38.5" fill="#34348b"/>
    </g>
    <g clip-path="url(#clip-path)">
      <polygon points="48.7 38.5 48.7 45.5 54.8 42 48.7 38.5" fill="#ea4d81"/>
    </g>
    <g clip-path="url(#clip-path)">
      <polygon points="48.7 45.5 48.7 38.5 42.6 42 48.7 45.5" fill="#59347c"/>
    </g>
    <g clip-path="url(#clip-path)">
      <polygon points="48.7 45.5 48.7 52.5 54.8 49 48.7 45.5" fill="#c34d96"/>
    </g>
    <g clip-path="url(#clip-path)">
      <polygon points="48.7 52.5 48.7 45.5 42.6 49 48.7 52.5" fill="#ad2986"/>
    </g>
    <g clip-path="url(#clip-path)">
      <polygon points="48.7 52.5 48.7 59.6 54.8 56 48.7 52.5" fill="#c5579c"/>
    </g>
    <g clip-path="url(#clip-path)">
      <polygon points="48.7 59.6 48.7 52.5 42.6 56.1 48.7 59.6" fill="#7c4d99"/>
    </g>
    <g clip-path="url(#clip-path)">
      <polygon points="18.3 7 18.3 14 24.3 10.5 18.3 7" fill="#80bc50"/>
    </g>
    <g clip-path="url(#clip-path)">
      <polygon points="18.3 14 18.3 7 12.2 10.5 18.3 14" fill="#45ad4a"/>
    </g>
    <g clip-path="url(#clip-path)">
      <polygon points="18.3 14 18.3 21 24.3 17.6 18.3 14" fill="#156181"/>
    </g>
    <g clip-path="url(#clip-path)">
      <polygon points="18.3 21 18.3 14 12.2 17.6 18.3 21" fill="#21887e"/>
    </g>
    <g clip-path="url(#clip-path)">
      <polygon points="18.3 21 18.3 28 24.3 24.5 18.3 21" fill="#597bb8"/>
    </g>
    <g clip-path="url(#clip-path)">
      <polygon points="18.3 28 18.3 21 12.2 24.5 18.3 28" fill="#cbd622"/>
    </g>
    <g clip-path="url(#clip-path)">
      <polygon points="18.3 28 18.3 35 24.3 31.5 18.3 28" fill="#e0ecf5"/>
    </g>
    <g clip-path="url(#clip-path)">
      <polygon points="18.3 35 18.3 28 12.2 31.6 18.3 35" fill="#268eaa"/>
    </g>
    <g clip-path="url(#clip-path)">
      <polygon points="18.3 35 18.3 42.1 24.3 38.5 18.3 35" fill="#1e82b6"/>
    </g>
    <g clip-path="url(#clip-path)">
      <polygon points="18.3 42.1 18.3 35 12.2 38.5 18.3 42.1" fill="#2ab0ae"/>
    </g>
    <g clip-path="url(#clip-path)">
      <polygon points="18.3 42.1 18.3 49 24.3 45.6 18.3 42.1" fill="#2aadc9"/>
    </g>
    <g clip-path="url(#clip-path)">
      <polygon points="18.3 49 18.3 42.1 12.2 45.6 18.3 49" fill="#268eaa"/>
    </g>
    <g clip-path="url(#clip-path)">
      <polygon points="18.3 49 18.3 56.1 24.3 52.5 18.3 49" fill="#597bb8"/>
    </g>
    <g clip-path="url(#clip-path)">
      <polygon points="18.3 56.1 18.3 49 12.2 52.5 18.3 56.1" fill="#222e59"/>
    </g>
    <g clip-path="url(#clip-path)">
      <polygon points="18.3 56.1 18.3 63 24.3 59.6 18.3 56.1" fill="#a9cee1"/>
    </g>
    <g clip-path="url(#clip-path)">
      <polygon points="18.3 63 18.3 56.1 12.2 59.6 18.3 63" fill="#97c5df"/>
    </g>
    <g clip-path="url(#clip-path)">
      <polygon points="30.4 0 30.4 7 36.5 3.5 30.4 0" fill="#2857a4"/>
    </g>
    <g clip-path="url(#clip-path)">
      <polygon points="30.4 7 30.4 0 24.3 3.5 30.4 7" fill="#2276bb"/>
    </g>
    <g clip-path="url(#clip-path)">
      <polygon points="30.4 7 30.4 14 36.5 10.5 30.4 7" fill="#213970"/>
    </g>
    <g clip-path="url(#clip-path)">
      <polygon points="30.4 14 30.4 7 24.3 10.5 30.4 14" fill="#222e59"/>
    </g>
    <g clip-path="url(#clip-path)">
      <polygon points="30.4 14 30.4 21 36.5 17.5 30.4 14" fill="#29327a"/>
    </g>
    <g clip-path="url(#clip-path)">
      <polygon points="30.4 21 30.4 14 24.3 17.6 30.4 21" fill="#1a4080"/>
    </g>
    <g clip-path="url(#clip-path)">
      <polygon points="30.4 21 30.4 28 36.5 24.5 30.4 21" fill="#1f7ebd"/>
    </g>
    <g clip-path="url(#clip-path)">
      <polygon points="30.4 28 30.4 21 24.3 24.5 30.4 28" fill="#209ed9"/>
    </g>
    <g clip-path="url(#clip-path)">
      <polygon points="30.4 28 30.4 35 36.5 31.5 30.4 28" fill="#6499af"/>
    </g>
    <g clip-path="url(#clip-path)">
      <polygon points="30.4 35 30.4 28 24.3 31.5 30.4 35" fill="#bfd6e8"/>
    </g>
    <g clip-path="url(#clip-path)">
      <polygon points="30.4 35 30.4 42 36.5 38.5 30.4 35" fill="#2352a0"/>
    </g>
    <g clip-path="url(#clip-path)">
      <polygon points="30.4 42 30.4 35 24.3 38.5 30.4 42" fill="#1c77ab"/>
    </g>
    <g clip-path="url(#clip-path)">
      <polygon points="30.4 42 30.4 49 36.5 45.5 30.4 42" fill="#0972b8"/>
    </g>
    <g clip-path="url(#clip-path)">
      <polygon points="30.4 49 30.4 42 24.3 45.6 30.4 49" fill="#293276"/>
    </g>
    <g clip-path="url(#clip-path)">
      <polygon points="30.4 49 30.4 56.1 36.5 52.5 30.4 49" fill="#3e768d"/>
    </g>
    <g clip-path="url(#clip-path)">
      <polygon points="30.4 56.1 30.4 49 24.3 52.5 30.4 56.1" fill="#165385"/>
    </g>
    <g clip-path="url(#clip-path)">
      <polygon points="30.4 56.1 30.4 63 36.5 59.6 30.4 56.1" fill="#213970"/>
    </g>
    <g clip-path="url(#clip-path)">
      <polygon points="30.4 63 30.4 56.1 24.3 59.6 30.4 63" fill="#2aadc9"/>
    </g>
    <g clip-path="url(#clip-path)">
      <polygon points="30.4 63 30.4 70 36.5 66.5 30.4 63" fill="#b1c2e1"/>
    </g>
    <g clip-path="url(#clip-path)">
      <polygon points="30.4 70 30.4 63 24.3 66.5 30.4 70" fill="#0b72b8"/>
    </g>
    <g clip-path="url(#clip-path)">
      <polygon points="6.1 14 6.1 21 12.2 17.6 6.1 14" fill="#b9ddd5"/>
    </g>
    <g clip-path="url(#clip-path)">
      <polygon points="6.1 21 6.1 14 0 17.6 6.1 21" fill="#73c3b5"/>
    </g>
    <g clip-path="url(#clip-path)">
      <polygon points="6.1 21 6.1 28.1 12.2 24.5 6.1 21" fill="#8fd0d6"/>
    </g>
    <g clip-path="url(#clip-path)">
      <polygon points="6.1 28.1 6.1 21 0 24.5 6.1 28.1" fill="#2baa98"/>
    </g>
    <g clip-path="url(#clip-path)">
      <polygon points="6.1 28.1 6.1 35 12.2 31.6 6.1 28.1" fill="#80bc50"/>
    </g>
    <g clip-path="url(#clip-path)">
      <polygon points="6.1 35 6.1 28.1 0 31.6 6.1 35" fill="#32bad1"/>
    </g>
    <g clip-path="url(#clip-path)">
      <polygon points="6.1 35 6.1 42.1 12.2 38.5 6.1 35" fill="#29a769"/>
    </g>
    <g clip-path="url(#clip-path)">
      <polygon points="6.1 42.1 6.1 35 0 38.5 6.1 42.1" fill="#21887e"/>
    </g>
    <g clip-path="url(#clip-path)">
      <polygon points="6.1 42.1 6.1 49 12.2 45.6 6.1 42.1" fill="#156181"/>
    </g>
    <g clip-path="url(#clip-path)">
      <polygon points="6.1 49 6.1 42.1 0 45.6 6.1 49" fill="#1a7145"/>
    </g>
    <g clip-path="url(#clip-path)">
      <polygon points="6.1 49 6.1 56.1 12.2 52.5 6.1 49" fill="#21887e"/>
    </g>
    <g clip-path="url(#clip-path)">
      <polygon points="6.1 56.1 6.1 49 0 52.6 6.1 56.1" fill="#25573d"/>
    </g>
    <g clip-path="url(#clip-path)">
      <polygon points="42.6 7 42.6 14 48.7 10.5 42.6 7" fill="#b2388d"/>
    </g>
    <g clip-path="url(#clip-path)">
      <polygon points="42.6 14 42.6 7 36.5 10.5 42.6 14" fill="#a22680"/>
    </g>
    <g clip-path="url(#clip-path)">
      <polygon points="42.6 14 42.6 21 48.7 17.5 42.6 14" fill="#ed81a9"/>
    </g>
    <g clip-path="url(#clip-path)">
      <polygon points="42.6 21 42.6 14 36.5 17.6 42.6 21" fill="#4f3b90"/>
    </g>
    <g clip-path="url(#clip-path)">
      <polygon points="42.6 21 42.6 28 48.7 24.5 42.6 21" fill="#a22680"/>
    </g>
    <g clip-path="url(#clip-path)">
      <polygon points="42.6 28 42.6 21 36.5 24.5 42.6 28" fill="#036bb2"/>
    </g>
    <g clip-path="url(#clip-path)">
      <polygon points="42.6 28 42.6 35 48.7 31.5 42.6 28" fill="#83368c"/>
    </g>
    <g clip-path="url(#clip-path)">
      <polygon points="42.6 35 42.6 28 36.5 31.5 42.6 35" fill="#3d2871"/>
    </g>
    <g clip-path="url(#clip-path)">
      <polygon points="42.6 35 42.6 42 48.7 38.5 42.6 35" fill="#8d7aa5"/>
    </g>
    <g clip-path="url(#clip-path)">
      <polygon points="42.6 42 42.6 35 36.5 38.5 42.6 42" fill="#1c77ab"/>
    </g>
    <g clip-path="url(#clip-path)">
      <polygon points="42.6 42 42.6 49 48.7 45.5 42.6 42" fill="#6b3f91"/>
    </g>
    <g clip-path="url(#clip-path)">
      <polygon points="42.6 49 42.6 42 36.5 45.6 42.6 49" fill="#502f88"/>
    </g>
    <g clip-path="url(#clip-path)">
      <polygon points="42.6 49 42.6 56.1 48.7 52.5 42.6 49" fill="#1366b0"/>
    </g>
    <g clip-path="url(#clip-path)">
      <polygon points="42.6 56.1 42.6 49 36.5 52.5 42.6 56.1" fill="#805ba2"/>
    </g>
    <g clip-path="url(#clip-path)">
      <polygon points="42.6 56.1 42.6 63 48.7 59.6 42.6 56.1" fill="#4d4e9c"/>
    </g>
    <g clip-path="url(#clip-path)">
      <polygon points="42.6 63 42.6 56.1 36.5 59.6 42.6 63" fill="#4f609a"/>
    </g>
    <g clip-path="url(#clip-path)">
      <polygon points="54.8 14 54.8 21 60.9 17.5 54.8 14" fill="#e11883"/>
    </g>
    <g clip-path="url(#clip-path)">
      <polygon points="54.8 21 54.8 14 48.7 17.5 54.8 21" fill="#d61e5f"/>
    </g>
    <g clip-path="url(#clip-path)">
      <polygon points="54.8 21 54.8 28 60.9 24.5 54.8 21" fill="#e9427b"/>
    </g>
    <g clip-path="url(#clip-path)">
      <polygon points="54.8 28 54.8 21 48.7 24.5 54.8 28" fill="#ed6d24"/>
    </g>
    <g clip-path="url(#clip-path)">
      <polygon points="54.8 28 54.8 35 60.9 31.5 54.8 28" fill="#f6a861"/>
    </g>
    <g clip-path="url(#clip-path)">
      <polygon points="54.8 35 54.8 28 48.7 31.5 54.8 35" fill="#f9b433"/>
    </g>
    <g clip-path="url(#clip-path)">
      <polygon points="54.8 35 54.8 42 60.9 38.5 54.8 35" fill="#f6a861"/>
    </g>
    <g clip-path="url(#clip-path)">
      <polygon points="54.8 42 54.8 35 48.7 38.5 54.8 42" fill="#ce94b4"/>
    </g>
    <g clip-path="url(#clip-path)">
      <polygon points="54.8 42 54.8 49 60.9 45.5 54.8 42" fill="#f08223"/>
    </g>
    <g clip-path="url(#clip-path)">
      <polygon points="54.8 49 54.8 42 48.7 45.5 54.8 49" fill="#ed81a9"/>
    </g>
    <g clip-path="url(#clip-path)">
      <polygon points="54.8 49 54.8 56 60.9 52.5 54.8 49" fill="#e25a2a"/>
    </g>
    <g clip-path="url(#clip-path)">
      <polygon points="54.8 56 54.8 49 48.7 52.5 54.8 56" fill="#e32c4b"/>
    </g>
  </g>
  <path d="M37.7,20c-3.3-3.2-6.3-6.3-7.2-9.7-.9,3.4-4.1,6.6-7.2,9.7C18.4,24.9,13,30.3,13,38.6a17.6,17.6,0,1,0,35.1,0h0c0-8.3-5.5-13.7-10.4-18.6M21.9,40.2c-.5.7-1,1.4-1.4,2.1s-.1.3-.2.3h-.2c-.4,0-.9-.8-.9-.8l-.2-.5c-.1,0-.1-.1-.1-.2-1.1-2.3-.2-5.6-.2-5.6h0A12.4,12.4,0,0,1,20.8,31a24.8,24.8,0,0,1,1.9-2.6l.9.9,3.9,4a.6.6,0,0,1,0,.6l-4.1,4.5Zm8.8,11.5a6,6,0,0,1-6-6.1,5.4,5.4,0,0,1,1.5-3.9c1.3-1.6,2.8-3.1,4.5-5.1l4.6,5.2.3.5a6.1,6.1,0,0,1-4.8,9.4h-.1m11.4-9.6h0l-.5.5h-.1a1,1,0,0,1-.6-.5h0a21.7,21.7,0,0,0-3.6-4.4L35.7,36l-5.4-5.6c-.8-.8-2.5-2.4-3.1-3.2V27l-.4-.8V26a2.3,2.3,0,0,1,.2-1.6,1.6,1.6,0,0,1,.6-.8l3-3.2c1.1,1.3,2.3,2.4,3.4,3.5h0A60.4,60.4,0,0,1,40.3,31a13,13,0,0,1,2.5,7.6,19.7,19.7,0,0,1-.6,3.5" transform="translate(0 0.1)" fill="#fff"/>
</svg>
