<svg id="Livello_1" data-name="Livello 1" xmlns="http://www.w3.org/2000/svg" width="219.6" height="336.4" viewBox="0 0 219.6 336.4">
  <title>triangle-block-right</title>
  <polygon points="73.2 84.1 73.2 0 0 42.2 73.2 84.1" fill="#e0e0df"/>
  <polygon points="73.2 168.3 73.2 84.1 0 126.3 73.2 168.3" fill="#cccbca"/>
  <polygon points="73.2 252.4 73.2 168.3 0 210.4 73.2 252.4" fill="#e1e2e1"/>
  <polygon points="0.2 126.3 0.2 210.4 73.4 168.3 0.2 126.3" fill="#efeeee"/>
  <polygon points="73.5 336.4 73.5 252.3 0.3 294.4 73.5 336.4" fill="#e9e9e9"/>
  <polygon points="219.4 252.3 219.4 168.1 146.2 210.3 219.4 252.3" fill="#e1e2e1"/>
  <polygon points="73.2 168.3 73.2 252.4 146.4 210.3 73.2 168.3" fill="#e9e9e9"/>
  <polygon points="146.4 126.1 146.4 42 73.3 84.2 146.4 126.1" fill="#efeeee"/>
  <polygon points="146.4 126.1 146.4 210.3 219.6 168.1 146.4 126.1" fill="#efeeee"/>
</svg>
